[
  {
    "version": "1.18.3",
    "stable": true,
    "release_url": "https://gitea.com/actions/go-versions/releases/tag/1.18.3-2426432064",
    "files": [
      {
        "filename": "go-1.18.3-darwin-x64.tar.gz",
        "arch": "x64",
        "platform": "darwin",
        "download_url": "https://gitea.com/actions/go-versions/releases/download/1.18.3-2426432064/go-1.18.3-darwin-x64.tar.gz"
      },
      {
        "filename": "go-1.18.3-linux-x64.tar.gz",
        "arch": "x64",
        "platform": "linux",
        "download_url": "https://gitea.com/actions/go-versions/releases/download/1.18.3-2426432064/go-1.18.3-linux-x64.tar.gz"
      },
      {
        "filename": "go-1.18.3-win32-x64.zip",
        "arch": "x64",
        "platform": "win32",
        "download_url": "https://gitea.com/actions/go-versions/releases/download/1.18.3-2426432064/go-1.18.3-win32-x64.zip"
      }
    ]
  },
  {
    "version": "1.18.2",
    "stable": true,
    "release_url": "https://gitea.com/actions/go-versions/releases/tag/1.18.2-2305306834",
    "files": [
      {
        "filename": "go-1.18.2-darwin-x64.tar.gz",
        "arch": "x64",
        "platform": "darwin",
        "download_url": "https://gitea.com/actions/go-versions/releases/download/1.18.2-2305306834/go-1.18.2-darwin-x64.tar.gz"
      },
      {
        "filename": "go-1.18.2-linux-x64.tar.gz",
        "arch": "x64",
        "platform": "linux",
        "download_url": "https://gitea.com/actions/go-versions/releases/download/1.18.2-2305306834/go-1.18.2-linux-x64.tar.gz"
      },
      {
        "filename": "go-1.18.2-win32-x64.zip",
        "arch": "x64",
        "platform": "win32",
        "download_url": "https://gitea.com/actions/go-versions/releases/download/1.18.2-2305306834/go-1.18.2-win32-x64.zip"
      }
    ]
  },
  {
    "version": "1.18.1",
    "stable": true,
    "release_url": "https://gitea.com/actions/go-versions/releases/tag/1.18.1-2171178401",
    "files": [
      {
        "filename": "go-1.18.1-darwin-x64.tar.gz",
        "arch": "x64",
        "platform": "darwin",
        "download_url": "https://gitea.com/actions/go-versions/releases/download/1.18.1-2171178401/go-1.18.1-darwin-x64.tar.gz"
      },
      {
        "filename": "go-1.18.1-linux-x64.tar.gz",
        "arch": "x64",
        "platform": "linux",
        "download_url": "https://gitea.com/actions/go-versions/releases/download/1.18.1-2171178401/go-1.18.1-linux-x64.tar.gz"
      },
      {
        "filename": "go-1.18.1-win32-x64.zip",
        "arch": "x64",
        "platform": "win32",
        "download_url": "https://gitea.com/actions/go-versions/releases/download/1.18.1-2171178401/go-1.18.1-win32-x64.zip"
      }
    ]
  },
  {
    "version": "1.18.0",
    "stable": true,
    "release_url": "https://gitea.com/actions/go-versions/releases/tag/1.18.0-1989285564",
    "files": [
      {
        "filename": "go-1.18.0-darwin-x64.tar.gz",
        "arch": "x64",
        "platform": "darwin",
        "download_url": "https://gitea.com/actions/go-versions/releases/download/1.18.0-1989285564/go-1.18.0-darwin-x64.tar.gz"
      },
      {
        "filename": "go-1.18.0-linux-x64.tar.gz",
        "arch": "x64",
        "platform": "linux",
        "download_url": "https://gitea.com/actions/go-versions/releases/download/1.18.0-1989285564/go-1.18.0-linux-x64.tar.gz"
      },
      {
        "filename": "go-1.18.0-win32-x64.zip",
        "arch": "x64",
        "platform": "win32",
        "download_url": "https://gitea.com/actions/go-versions/releases/download/1.18.0-1989285564/go-1.18.0-win32-x64.zip"
      }
    ]
  },
  {
    "version": "1.17.11",
    "stable": true,
    "release_url": "https://gitea.com/actions/go-versions/releases/tag/1.17.11-2426432629",
    "files": [
      {
        "filename": "go-1.17.11-darwin-x64.tar.gz",
        "arch": "x64",
        "platform": "darwin",
        "download_url": "https://gitea.com/actions/go-versions/releases/download/1.17.11-2426432629/go-1.17.11-darwin-x64.tar.gz"
      },
      {
        "filename": "go-1.17.11-linux-x64.tar.gz",
        "arch": "x64",
        "platform": "linux",
        "download_url": "https://gitea.com/actions/go-versions/releases/download/1.17.11-2426432629/go-1.17.11-linux-x64.tar.gz"
      },
      {
        "filename": "go-1.17.11-win32-x64.zip",
        "arch": "x64",
        "platform": "win32",
        "download_url": "https://gitea.com/actions/go-versions/releases/download/1.17.11-2426432629/go-1.17.11-win32-x64.zip"
      }
    ]
  },
  {
    "version": "1.17.10",
    "stable": true,
    "release_url": "https://gitea.com/actions/go-versions/releases/tag/1.17.10-2305307626",
    "files": [
      {
        "filename": "go-1.17.10-darwin-x64.tar.gz",
        "arch": "x64",
        "platform": "darwin",
        "download_url": "https://gitea.com/actions/go-versions/releases/download/1.17.10-2305307626/go-1.17.10-darwin-x64.tar.gz"
      },
      {
        "filename": "go-1.17.10-linux-x64.tar.gz",
        "arch": "x64",
        "platform": "linux",
        "download_url": "https://gitea.com/actions/go-versions/releases/download/1.17.10-2305307626/go-1.17.10-linux-x64.tar.gz"
      },
      {
        "filename": "go-1.17.10-win32-x64.zip",
        "arch": "x64",
        "platform": "win32",
        "download_url": "https://gitea.com/actions/go-versions/releases/download/1.17.10-2305307626/go-1.17.10-win32-x64.zip"
      }
    ]
  },
  {
    "version": "1.17.9",
    "stable": true,
    "release_url": "https://gitea.com/actions/go-versions/releases/tag/1.17.9-2171178951",
    "files": [
      {
        "filename": "go-1.17.9-darwin-x64.tar.gz",
        "arch": "x64",
        "platform": "darwin",
        "download_url": "https://gitea.com/actions/go-versions/releases/download/1.17.9-2171178951/go-1.17.9-darwin-x64.tar.gz"
      },
      {
        "filename": "go-1.17.9-linux-x64.tar.gz",
        "arch": "x64",
        "platform": "linux",
        "download_url": "https://gitea.com/actions/go-versions/releases/download/1.17.9-2171178951/go-1.17.9-linux-x64.tar.gz"
      },
      {
        "filename": "go-1.17.9-win32-x64.zip",
        "arch": "x64",
        "platform": "win32",
        "download_url": "https://gitea.com/actions/go-versions/releases/download/1.17.9-2171178951/go-1.17.9-win32-x64.zip"
      }
    ]
  },
  {
    "version": "1.17.8",
    "stable": true,
    "release_url": "https://gitea.com/actions/go-versions/releases/tag/1.17.8-1989286235",
    "files": [
      {
        "filename": "go-1.17.8-darwin-x64.tar.gz",
        "arch": "x64",
        "platform": "darwin",
        "download_url": "https://gitea.com/actions/go-versions/releases/download/1.17.8-1989286235/go-1.17.8-darwin-x64.tar.gz"
      },
      {
        "filename": "go-1.17.8-linux-x64.tar.gz",
        "arch": "x64",
        "platform": "linux",
        "download_url": "https://gitea.com/actions/go-versions/releases/download/1.17.8-1989286235/go-1.17.8-linux-x64.tar.gz"
      },
      {
        "filename": "go-1.17.8-win32-x64.zip",
        "arch": "x64",
        "platform": "win32",
        "download_url": "https://gitea.com/actions/go-versions/releases/download/1.17.8-1989286235/go-1.17.8-win32-x64.zip"
      }
    ]
  },
  {
    "version": "1.17.7",
    "stable": true,
    "release_url": "https://gitea.com/actions/go-versions/releases/tag/1.17.7-1828071684",
    "files": [
      {
        "filename": "go-1.17.7-darwin-x64.tar.gz",
        "arch": "x64",
        "platform": "darwin",
        "download_url": "https://gitea.com/actions/go-versions/releases/download/1.17.7-1828071684/go-1.17.7-darwin-x64.tar.gz"
      },
      {
        "filename": "go-1.17.7-linux-x64.tar.gz",
        "arch": "x64",
        "platform": "linux",
        "download_url": "https://gitea.com/actions/go-versions/releases/download/1.17.7-1828071684/go-1.17.7-linux-x64.tar.gz"
      },
      {
        "filename": "go-1.17.7-win32-x64.zip",
        "arch": "x64",
        "platform": "win32",
        "download_url": "https://gitea.com/actions/go-versions/releases/download/1.17.7-1828071684/go-1.17.7-win32-x64.zip"
      }
    ]
  },
  {
    "version": "1.17.6",
    "stable": true,
    "release_url": "https://gitea.com/actions/go-versions/releases/tag/1.17.6-1668090892",
    "files": [
      {
        "filename": "go-1.17.6-darwin-x64.tar.gz",
        "arch": "x64",
        "platform": "darwin",
        "download_url": "https://gitea.com/actions/go-versions/releases/download/1.17.6-1668090892/go-1.17.6-darwin-x64.tar.gz"
      },
      {
        "filename": "go-1.17.6-linux-x64.tar.gz",
        "arch": "x64",
        "platform": "linux",
        "download_url": "https://gitea.com/actions/go-versions/releases/download/1.17.6-1668090892/go-1.17.6-linux-x64.tar.gz"
      },
      {
        "filename": "go-1.17.6-win32-x64.zip",
        "arch": "x64",
        "platform": "win32",
        "download_url": "https://gitea.com/actions/go-versions/releases/download/1.17.6-1668090892/go-1.17.6-win32-x64.zip"
      }
    ]
  },
  {
    "version": "1.17.5",
    "stable": true,
    "release_url": "https://gitea.com/actions/go-versions/releases/tag/1.17.5-1559554870",
    "files": [
      {
        "filename": "go-1.17.5-darwin-x64.tar.gz",
        "arch": "x64",
        "platform": "darwin",
        "download_url": "https://gitea.com/actions/go-versions/releases/download/1.17.5-1559554870/go-1.17.5-darwin-x64.tar.gz"
      },
      {
        "filename": "go-1.17.5-linux-x64.tar.gz",
        "arch": "x64",
        "platform": "linux",
        "download_url": "https://gitea.com/actions/go-versions/releases/download/1.17.5-1559554870/go-1.17.5-linux-x64.tar.gz"
      },
      {
        "filename": "go-1.17.5-win32-x64.zip",
        "arch": "x64",
        "platform": "win32",
        "download_url": "https://gitea.com/actions/go-versions/releases/download/1.17.5-1559554870/go-1.17.5-win32-x64.zip"
      }
    ]
  },
  {
    "version": "1.17.4",
    "stable": true,
    "release_url": "https://gitea.com/actions/go-versions/releases/tag/1.17.4-1534216344",
    "files": [
      {
        "filename": "go-1.17.4-darwin-x64.tar.gz",
        "arch": "x64",
        "platform": "darwin",
        "download_url": "https://gitea.com/actions/go-versions/releases/download/1.17.4-1534216344/go-1.17.4-darwin-x64.tar.gz"
      },
      {
        "filename": "go-1.17.4-linux-x64.tar.gz",
        "arch": "x64",
        "platform": "linux",
        "download_url": "https://gitea.com/actions/go-versions/releases/download/1.17.4-1534216344/go-1.17.4-linux-x64.tar.gz"
      },
      {
        "filename": "go-1.17.4-win32-x64.zip",
        "arch": "x64",
        "platform": "win32",
        "download_url": "https://gitea.com/actions/go-versions/releases/download/1.17.4-1534216344/go-1.17.4-win32-x64.zip"
      }
    ]
  },
  {
    "version": "1.17.3",
    "stable": true,
    "release_url": "https://gitea.com/actions/go-versions/releases/tag/1.17.3-1425023214",
    "files": [
      {
        "filename": "go-1.17.3-darwin-x64.tar.gz",
        "arch": "x64",
        "platform": "darwin",
        "download_url": "https://gitea.com/actions/go-versions/releases/download/1.17.3-1425023214/go-1.17.3-darwin-x64.tar.gz"
      },
      {
        "filename": "go-1.17.3-linux-x64.tar.gz",
        "arch": "x64",
        "platform": "linux",
        "download_url": "https://gitea.com/actions/go-versions/releases/download/1.17.3-1425023214/go-1.17.3-linux-x64.tar.gz"
      },
      {
        "filename": "go-1.17.3-win32-x64.zip",
        "arch": "x64",
        "platform": "win32",
        "download_url": "https://gitea.com/actions/go-versions/releases/download/1.17.3-1425023214/go-1.17.3-win32-x64.zip"
      }
    ]
  },
  {
    "version": "1.17.2",
    "stable": true,
    "release_url": "https://gitea.com/actions/go-versions/releases/tag/1.17.2-1319360519",
    "files": [
      {
        "filename": "go-1.17.2-darwin-x64.tar.gz",
        "arch": "x64",
        "platform": "darwin",
        "download_url": "https://gitea.com/actions/go-versions/releases/download/1.17.2-1319360519/go-1.17.2-darwin-x64.tar.gz"
      },
      {
        "filename": "go-1.17.2-linux-x64.tar.gz",
        "arch": "x64",
        "platform": "linux",
        "download_url": "https://gitea.com/actions/go-versions/releases/download/1.17.2-1319360519/go-1.17.2-linux-x64.tar.gz"
      },
      {
        "filename": "go-1.17.2-win32-x64.zip",
        "arch": "x64",
        "platform": "win32",
        "download_url": "https://gitea.com/actions/go-versions/releases/download/1.17.2-1319360519/go-1.17.2-win32-x64.zip"
      }
    ]
  },
  {
    "version": "1.17.1",
    "stable": true,
    "release_url": "https://gitea.com/actions/go-versions/releases/tag/1.17.1-1220318589",
    "files": [
      {
        "filename": "go-1.17.1-darwin-x64.tar.gz",
        "arch": "x64",
        "platform": "darwin",
        "download_url": "https://gitea.com/actions/go-versions/releases/download/1.17.1-1220318589/go-1.17.1-darwin-x64.tar.gz"
      },
      {
        "filename": "go-1.17.1-linux-x64.tar.gz",
        "arch": "x64",
        "platform": "linux",
        "download_url": "https://gitea.com/actions/go-versions/releases/download/1.17.1-1220318589/go-1.17.1-linux-x64.tar.gz"
      },
      {
        "filename": "go-1.17.1-win32-x64.zip",
        "arch": "x64",
        "platform": "win32",
        "download_url": "https://gitea.com/actions/go-versions/releases/download/1.17.1-1220318589/go-1.17.1-win32-x64.zip"
      }
    ]
  },
  {
    "version": "1.17.0",
    "stable": true,
    "release_url": "https://gitea.com/actions/go-versions/releases/tag/1.17.0-1138146562",
    "files": [
      {
        "filename": "go-1.17.0-darwin-x64.tar.gz",
        "arch": "x64",
        "platform": "darwin",
        "download_url": "https://gitea.com/actions/go-versions/releases/download/1.17.0-1138146562/go-1.17.0-darwin-x64.tar.gz"
      },
      {
        "filename": "go-1.17.0-linux-x64.tar.gz",
        "arch": "x64",
        "platform": "linux",
        "download_url": "https://gitea.com/actions/go-versions/releases/download/1.17.0-1138146562/go-1.17.0-linux-x64.tar.gz"
      },
      {
        "filename": "go-1.17.0-win32-x64.zip",
        "arch": "x64",
        "platform": "win32",
        "download_url": "https://gitea.com/actions/go-versions/releases/download/1.17.0-1138146562/go-1.17.0-win32-x64.zip"
      }
    ]
  },
  {
    "version": "1.16.15",
    "stable": true,
    "release_url": "https://gitea.com/actions/go-versions/releases/tag/1.16.15-1989287126",
    "files": [
      {
        "filename": "go-1.16.15-darwin-x64.tar.gz",
        "arch": "x64",
        "platform": "darwin",
        "download_url": "https://gitea.com/actions/go-versions/releases/download/1.16.15-1989287126/go-1.16.15-darwin-x64.tar.gz"
      },
      {
        "filename": "go-1.16.15-linux-x64.tar.gz",
        "arch": "x64",
        "platform": "linux",
        "download_url": "https://gitea.com/actions/go-versions/releases/download/1.16.15-1989287126/go-1.16.15-linux-x64.tar.gz"
      },
      {
        "filename": "go-1.16.15-win32-x64.zip",
        "arch": "x64",
        "platform": "win32",
        "download_url": "https://gitea.com/actions/go-versions/releases/download/1.16.15-1989287126/go-1.16.15-win32-x64.zip"
      }
    ]
  },
  {
    "version": "1.16.14",
    "stable": true,
    "release_url": "https://gitea.com/actions/go-versions/releases/tag/1.16.14-1828072052",
    "files": [
      {
        "filename": "go-1.16.14-darwin-x64.tar.gz",
        "arch": "x64",
        "platform": "darwin",
        "download_url": "https://gitea.com/actions/go-versions/releases/download/1.16.14-1828072052/go-1.16.14-darwin-x64.tar.gz"
      },
      {
        "filename": "go-1.16.14-linux-x64.tar.gz",
        "arch": "x64",
        "platform": "linux",
        "download_url": "https://gitea.com/actions/go-versions/releases/download/1.16.14-1828072052/go-1.16.14-linux-x64.tar.gz"
      },
      {
        "filename": "go-1.16.14-win32-x64.zip",
        "arch": "x64",
        "platform": "win32",
        "download_url": "https://gitea.com/actions/go-versions/releases/download/1.16.14-1828072052/go-1.16.14-win32-x64.zip"
      }
    ]
  },
  {
    "version": "1.16.13",
    "stable": true,
    "release_url": "https://gitea.com/actions/go-versions/releases/tag/1.16.13-1668091716",
    "files": [
      {
        "filename": "go-1.16.13-darwin-x64.tar.gz",
        "arch": "x64",
        "platform": "darwin",
        "download_url": "https://gitea.com/actions/go-versions/releases/download/1.16.13-1668091716/go-1.16.13-darwin-x64.tar.gz"
      },
      {
        "filename": "go-1.16.13-linux-x64.tar.gz",
        "arch": "x64",
        "platform": "linux",
        "download_url": "https://gitea.com/actions/go-versions/releases/download/1.16.13-1668091716/go-1.16.13-linux-x64.tar.gz"
      },
      {
        "filename": "go-1.16.13-win32-x64.zip",
        "arch": "x64",
        "platform": "win32",
        "download_url": "https://gitea.com/actions/go-versions/releases/download/1.16.13-1668091716/go-1.16.13-win32-x64.zip"
      }
    ]
  },
  {
    "version": "1.16.12",
    "stable": true,
    "release_url": "https://gitea.com/actions/go-versions/releases/tag/1.16.12-1559555580",
    "files": [
      {
        "filename": "go-1.16.12-darwin-x64.tar.gz",
        "arch": "x64",
        "platform": "darwin",
        "download_url": "https://gitea.com/actions/go-versions/releases/download/1.16.12-1559555580/go-1.16.12-darwin-x64.tar.gz"
      },
      {
        "filename": "go-1.16.12-linux-x64.tar.gz",
        "arch": "x64",
        "platform": "linux",
        "download_url": "https://gitea.com/actions/go-versions/releases/download/1.16.12-1559555580/go-1.16.12-linux-x64.tar.gz"
      },
      {
        "filename": "go-1.16.12-win32-x64.zip",
        "arch": "x64",
        "platform": "win32",
        "download_url": "https://gitea.com/actions/go-versions/releases/download/1.16.12-1559555580/go-1.16.12-win32-x64.zip"
      }
    ]
  },
  {
    "version": "1.16.11",
    "stable": true,
    "release_url": "https://gitea.com/actions/go-versions/releases/tag/1.16.11-1534217055",
    "files": [
      {
        "filename": "go-1.16.11-darwin-x64.tar.gz",
        "arch": "x64",
        "platform": "darwin",
        "download_url": "https://gitea.com/actions/go-versions/releases/download/1.16.11-1534217055/go-1.16.11-darwin-x64.tar.gz"
      },
      {
        "filename": "go-1.16.11-linux-x64.tar.gz",
        "arch": "x64",
        "platform": "linux",
        "download_url": "https://gitea.com/actions/go-versions/releases/download/1.16.11-1534217055/go-1.16.11-linux-x64.tar.gz"
      },
      {
        "filename": "go-1.16.11-win32-x64.zip",
        "arch": "x64",
        "platform": "win32",
        "download_url": "https://gitea.com/actions/go-versions/releases/download/1.16.11-1534217055/go-1.16.11-win32-x64.zip"
      }
    ]
  },
  {
    "version": "1.16.10",
    "stable": true,
    "release_url": "https://gitea.com/actions/go-versions/releases/tag/1.16.10-1425023617",
    "files": [
      {
        "filename": "go-1.16.10-darwin-x64.tar.gz",
        "arch": "x64",
        "platform": "darwin",
        "download_url": "https://gitea.com/actions/go-versions/releases/download/1.16.10-1425023617/go-1.16.10-darwin-x64.tar.gz"
      },
      {
        "filename": "go-1.16.10-linux-x64.tar.gz",
        "arch": "x64",
        "platform": "linux",
        "download_url": "https://gitea.com/actions/go-versions/releases/download/1.16.10-1425023617/go-1.16.10-linux-x64.tar.gz"
      },
      {
        "filename": "go-1.16.10-win32-x64.zip",
        "arch": "x64",
        "platform": "win32",
        "download_url": "https://gitea.com/actions/go-versions/releases/download/1.16.10-1425023617/go-1.16.10-win32-x64.zip"
      }
    ]
  },
  {
    "version": "1.16.9",
    "stable": true,
    "release_url": "https://gitea.com/actions/go-versions/releases/tag/1.16.9-1319361009",
    "files": [
      {
        "filename": "go-1.16.9-darwin-x64.tar.gz",
        "arch": "x64",
        "platform": "darwin",
        "download_url": "https://gitea.com/actions/go-versions/releases/download/1.16.9-1319361009/go-1.16.9-darwin-x64.tar.gz"
      },
      {
        "filename": "go-1.16.9-linux-x64.tar.gz",
        "arch": "x64",
        "platform": "linux",
        "download_url": "https://gitea.com/actions/go-versions/releases/download/1.16.9-1319361009/go-1.16.9-linux-x64.tar.gz"
      },
      {
        "filename": "go-1.16.9-win32-x64.zip",
        "arch": "x64",
        "platform": "win32",
        "download_url": "https://gitea.com/actions/go-versions/releases/download/1.16.9-1319361009/go-1.16.9-win32-x64.zip"
      }
    ]
  },
  {
    "version": "1.16.8",
    "stable": true,
    "release_url": "https://gitea.com/actions/go-versions/releases/tag/1.16.8-1220319069",
    "files": [
      {
        "filename": "go-1.16.8-darwin-x64.tar.gz",
        "arch": "x64",
        "platform": "darwin",
        "download_url": "https://gitea.com/actions/go-versions/releases/download/1.16.8-1220319069/go-1.16.8-darwin-x64.tar.gz"
      },
      {
        "filename": "go-1.16.8-linux-x64.tar.gz",
        "arch": "x64",
        "platform": "linux",
        "download_url": "https://gitea.com/actions/go-versions/releases/download/1.16.8-1220319069/go-1.16.8-linux-x64.tar.gz"
      },
      {
        "filename": "go-1.16.8-win32-x64.zip",
        "arch": "x64",
        "platform": "win32",
        "download_url": "https://gitea.com/actions/go-versions/releases/download/1.16.8-1220319069/go-1.16.8-win32-x64.zip"
      }
    ]
  },
  {
    "version": "1.16.7",
    "stable": true,
    "release_url": "https://gitea.com/actions/go-versions/releases/tag/1.16.7-1104053924",
    "files": [
      {
        "filename": "go-1.16.7-darwin-x64.tar.gz",
        "arch": "x64",
        "platform": "darwin",
        "download_url": "https://gitea.com/actions/go-versions/releases/download/1.16.7-1104053924/go-1.16.7-darwin-x64.tar.gz"
      },
      {
        "filename": "go-1.16.7-linux-x64.tar.gz",
        "arch": "x64",
        "platform": "linux",
        "download_url": "https://gitea.com/actions/go-versions/releases/download/1.16.7-1104053924/go-1.16.7-linux-x64.tar.gz"
      },
      {
        "filename": "go-1.16.7-win32-x64.zip",
        "arch": "x64",
        "platform": "win32",
        "download_url": "https://gitea.com/actions/go-versions/releases/download/1.16.7-1104053924/go-1.16.7-win32-x64.zip"
      }
    ]
  },
  {
    "version": "1.16.6",
    "stable": true,
    "release_url": "https://gitea.com/actions/go-versions/releases/tag/1.16.6-1025519079",
    "files": [
      {
        "filename": "go-1.16.6-darwin-x64.tar.gz",
        "arch": "x64",
        "platform": "darwin",
        "download_url": "https://gitea.com/actions/go-versions/releases/download/1.16.6-1025519079/go-1.16.6-darwin-x64.tar.gz"
      },
      {
        "filename": "go-1.16.6-linux-x64.tar.gz",
        "arch": "x64",
        "platform": "linux",
        "download_url": "https://gitea.com/actions/go-versions/releases/download/1.16.6-1025519079/go-1.16.6-linux-x64.tar.gz"
      },
      {
        "filename": "go-1.16.6-win32-x64.zip",
        "arch": "x64",
        "platform": "win32",
        "download_url": "https://gitea.com/actions/go-versions/releases/download/1.16.6-1025519079/go-1.16.6-win32-x64.zip"
      }
    ]
  },
  {
    "version": "1.16.5",
    "stable": true,
    "release_url": "https://gitea.com/actions/go-versions/releases/tag/1.16.5-905270799",
    "files": [
      {
        "filename": "go-1.16.5-darwin-x64.tar.gz",
        "arch": "x64",
        "platform": "darwin",
        "download_url": "https://gitea.com/actions/go-versions/releases/download/1.16.5-905270799/go-1.16.5-darwin-x64.tar.gz"
      },
      {
        "filename": "go-1.16.5-linux-x64.tar.gz",
        "arch": "x64",
        "platform": "linux",
        "download_url": "https://gitea.com/actions/go-versions/releases/download/1.16.5-905270799/go-1.16.5-linux-x64.tar.gz"
      },
      {
        "filename": "go-1.16.5-win32-x64.zip",
        "arch": "x64",
        "platform": "win32",
        "download_url": "https://gitea.com/actions/go-versions/releases/download/1.16.5-905270799/go-1.16.5-win32-x64.zip"
      }
    ]
  },
  {
    "version": "1.16.4",
    "stable": true,
    "release_url": "https://gitea.com/actions/go-versions/releases/tag/1.16.4-820698457",
    "files": [
      {
        "filename": "go-1.16.4-darwin-x64.tar.gz",
        "arch": "x64",
        "platform": "darwin",
        "download_url": "https://gitea.com/actions/go-versions/releases/download/1.16.4-820698457/go-1.16.4-darwin-x64.tar.gz"
      },
      {
        "filename": "go-1.16.4-linux-x64.tar.gz",
        "arch": "x64",
        "platform": "linux",
        "download_url": "https://gitea.com/actions/go-versions/releases/download/1.16.4-820698457/go-1.16.4-linux-x64.tar.gz"
      },
      {
        "filename": "go-1.16.4-win32-x64.zip",
        "arch": "x64",
        "platform": "win32",
        "download_url": "https://gitea.com/actions/go-versions/releases/download/1.16.4-820698457/go-1.16.4-win32-x64.zip"
      }
    ]
  },
  {
    "version": "1.16.3",
    "stable": true,
    "release_url": "https://gitea.com/actions/go-versions/releases/tag/1.16.3-710801405",
    "files": [
      {
        "filename": "go-1.16.3-darwin-x64.tar.gz",
        "arch": "x64",
        "platform": "darwin",
        "download_url": "https://gitea.com/actions/go-versions/releases/download/1.16.3-710801405/go-1.16.3-darwin-x64.tar.gz"
      },
      {
        "filename": "go-1.16.3-linux-x64.tar.gz",
        "arch": "x64",
        "platform": "linux",
        "download_url": "https://gitea.com/actions/go-versions/releases/download/1.16.3-710801405/go-1.16.3-linux-x64.tar.gz"
      },
      {
        "filename": "go-1.16.3-win32-x64.zip",
        "arch": "x64",
        "platform": "win32",
        "download_url": "https://gitea.com/actions/go-versions/releases/download/1.16.3-710801405/go-1.16.3-win32-x64.zip"
      }
    ]
  },
  {
    "version": "1.16.2",
    "stable": true,
    "release_url": "https://gitea.com/actions/go-versions/releases/tag/1.16.2-645273747",
    "files": [
      {
        "filename": "go-1.16.2-darwin-x64.tar.gz",
        "arch": "x64",
        "platform": "darwin",
        "download_url": "https://gitea.com/actions/go-versions/releases/download/1.16.2-645273747/go-1.16.2-darwin-x64.tar.gz"
      },
      {
        "filename": "go-1.16.2-linux-x64.tar.gz",
        "arch": "x64",
        "platform": "linux",
        "download_url": "https://gitea.com/actions/go-versions/releases/download/1.16.2-645273747/go-1.16.2-linux-x64.tar.gz"
      },
      {
        "filename": "go-1.16.2-win32-x64.zip",
        "arch": "x64",
        "platform": "win32",
        "download_url": "https://gitea.com/actions/go-versions/releases/download/1.16.2-645273747/go-1.16.2-win32-x64.zip"
      }
    ]
  },
  {
    "version": "1.16.1",
    "stable": true,
    "release_url": "https://gitea.com/actions/go-versions/releases/tag/1.16.1-641940314",
    "files": [
      {
        "filename": "go-1.16.1-darwin-x64.tar.gz",
        "arch": "x64",
        "platform": "darwin",
        "download_url": "https://gitea.com/actions/go-versions/releases/download/1.16.1-641940314/go-1.16.1-darwin-x64.tar.gz"
      },
      {
        "filename": "go-1.16.1-linux-x64.tar.gz",
        "arch": "x64",
        "platform": "linux",
        "download_url": "https://gitea.com/actions/go-versions/releases/download/1.16.1-641940314/go-1.16.1-linux-x64.tar.gz"
      },
      {
        "filename": "go-1.16.1-win32-x64.zip",
        "arch": "x64",
        "platform": "win32",
        "download_url": "https://gitea.com/actions/go-versions/releases/download/1.16.1-641940314/go-1.16.1-win32-x64.zip"
      }
    ]
  },
  {
    "version": "1.16.0",
    "stable": true,
    "release_url": "https://gitea.com/actions/go-versions/releases/tag/1.16.0-574037055",
    "files": [
      {
        "filename": "go-1.16.0-darwin-x64.tar.gz",
        "arch": "x64",
        "platform": "darwin",
        "download_url": "https://gitea.com/actions/go-versions/releases/download/1.16.0-574037055/go-1.16.0-darwin-x64.tar.gz"
      },
      {
        "filename": "go-1.16.0-linux-x64.tar.gz",
        "arch": "x64",
        "platform": "linux",
        "download_url": "https://gitea.com/actions/go-versions/releases/download/1.16.0-574037055/go-1.16.0-linux-x64.tar.gz"
      },
      {
        "filename": "go-1.16.0-win32-x64.zip",
        "arch": "x64",
        "platform": "win32",
        "download_url": "https://gitea.com/actions/go-versions/releases/download/1.16.0-574037055/go-1.16.0-win32-x64.zip"
      }
    ]
  },
  {
    "version": "1.15.15",
    "stable": true,
    "release_url": "https://gitea.com/actions/go-versions/releases/tag/1.15.15-1104054180",
    "files": [
      {
        "filename": "go-1.15.15-darwin-x64.tar.gz",
        "arch": "x64",
        "platform": "darwin",
        "download_url": "https://gitea.com/actions/go-versions/releases/download/1.15.15-1104054180/go-1.15.15-darwin-x64.tar.gz"
      },
      {
        "filename": "go-1.15.15-linux-x64.tar.gz",
        "arch": "x64",
        "platform": "linux",
        "download_url": "https://gitea.com/actions/go-versions/releases/download/1.15.15-1104054180/go-1.15.15-linux-x64.tar.gz"
      },
      {
        "filename": "go-1.15.15-win32-x64.zip",
        "arch": "x64",
        "platform": "win32",
        "download_url": "https://gitea.com/actions/go-versions/releases/download/1.15.15-1104054180/go-1.15.15-win32-x64.zip"
      }
    ]
  },
  {
    "version": "1.15.14",
    "stable": true,
    "release_url": "https://gitea.com/actions/go-versions/releases/tag/1.15.14-1025519483",
    "files": [
      {
        "filename": "go-1.15.14-darwin-x64.tar.gz",
        "arch": "x64",
        "platform": "darwin",
        "download_url": "https://gitea.com/actions/go-versions/releases/download/1.15.14-1025519483/go-1.15.14-darwin-x64.tar.gz"
      },
      {
        "filename": "go-1.15.14-linux-x64.tar.gz",
        "arch": "x64",
        "platform": "linux",
        "download_url": "https://gitea.com/actions/go-versions/releases/download/1.15.14-1025519483/go-1.15.14-linux-x64.tar.gz"
      },
      {
        "filename": "go-1.15.14-win32-x64.zip",
        "arch": "x64",
        "platform": "win32",
        "download_url": "https://gitea.com/actions/go-versions/releases/download/1.15.14-1025519483/go-1.15.14-win32-x64.zip"
      }
    ]
  },
  {
    "version": "1.15.13",
    "stable": true,
    "release_url": "https://gitea.com/actions/go-versions/releases/tag/1.15.13-905271220",
    "files": [
      {
        "filename": "go-1.15.13-darwin-x64.tar.gz",
        "arch": "x64",
        "platform": "darwin",
        "download_url": "https://gitea.com/actions/go-versions/releases/download/1.15.13-905271220/go-1.15.13-darwin-x64.tar.gz"
      },
      {
        "filename": "go-1.15.13-linux-x64.tar.gz",
        "arch": "x64",
        "platform": "linux",
        "download_url": "https://gitea.com/actions/go-versions/releases/download/1.15.13-905271220/go-1.15.13-linux-x64.tar.gz"
      },
      {
        "filename": "go-1.15.13-win32-x64.zip",
        "arch": "x64",
        "platform": "win32",
        "download_url": "https://gitea.com/actions/go-versions/releases/download/1.15.13-905271220/go-1.15.13-win32-x64.zip"
      }
    ]
  },
  {
    "version": "1.15.12",
    "stable": true,
    "release_url": "https://gitea.com/actions/go-versions/releases/tag/1.15.12-820698955",
    "files": [
      {
        "filename": "go-1.15.12-darwin-x64.tar.gz",
        "arch": "x64",
        "platform": "darwin",
        "download_url": "https://gitea.com/actions/go-versions/releases/download/1.15.12-820698955/go-1.15.12-darwin-x64.tar.gz"
      },
      {
        "filename": "go-1.15.12-linux-x64.tar.gz",
        "arch": "x64",
        "platform": "linux",
        "download_url": "https://gitea.com/actions/go-versions/releases/download/1.15.12-820698955/go-1.15.12-linux-x64.tar.gz"
      },
      {
        "filename": "go-1.15.12-win32-x64.zip",
        "arch": "x64",
        "platform": "win32",
        "download_url": "https://gitea.com/actions/go-versions/releases/download/1.15.12-820698955/go-1.15.12-win32-x64.zip"
      }
    ]
  },
  {
    "version": "1.15.11",
    "stable": true,
    "release_url": "https://gitea.com/actions/go-versions/releases/tag/1.15.11-710801874",
    "files": [
      {
        "filename": "go-1.15.11-darwin-x64.tar.gz",
        "arch": "x64",
        "platform": "darwin",
        "download_url": "https://gitea.com/actions/go-versions/releases/download/1.15.11-710801874/go-1.15.11-darwin-x64.tar.gz"
      },
      {
        "filename": "go-1.15.11-linux-x64.tar.gz",
        "arch": "x64",
        "platform": "linux",
        "download_url": "https://gitea.com/actions/go-versions/releases/download/1.15.11-710801874/go-1.15.11-linux-x64.tar.gz"
      },
      {
        "filename": "go-1.15.11-win32-x64.zip",
        "arch": "x64",
        "platform": "win32",
        "download_url": "https://gitea.com/actions/go-versions/releases/download/1.15.11-710801874/go-1.15.11-win32-x64.zip"
      }
    ]
  },
  {
    "version": "1.15.10",
    "stable": true,
    "release_url": "https://gitea.com/actions/go-versions/releases/tag/1.15.10-645274319",
    "files": [
      {
        "filename": "go-1.15.10-darwin-x64.tar.gz",
        "arch": "x64",
        "platform": "darwin",
        "download_url": "https://gitea.com/actions/go-versions/releases/download/1.15.10-645274319/go-1.15.10-darwin-x64.tar.gz"
      },
      {
        "filename": "go-1.15.10-linux-x64.tar.gz",
        "arch": "x64",
        "platform": "linux",
        "download_url": "https://gitea.com/actions/go-versions/releases/download/1.15.10-645274319/go-1.15.10-linux-x64.tar.gz"
      },
      {
        "filename": "go-1.15.10-win32-x64.zip",
        "arch": "x64",
        "platform": "win32",
        "download_url": "https://gitea.com/actions/go-versions/releases/download/1.15.10-645274319/go-1.15.10-win32-x64.zip"
      }
    ]
  },
  {
    "version": "1.15.9",
    "stable": true,
    "release_url": "https://gitea.com/actions/go-versions/releases/tag/1.15.9-641940491",
    "files": [
      {
        "filename": "go-1.15.9-darwin-x64.tar.gz",
        "arch": "x64",
        "platform": "darwin",
        "download_url": "https://gitea.com/actions/go-versions/releases/download/1.15.9-641940491/go-1.15.9-darwin-x64.tar.gz"
      },
      {
        "filename": "go-1.15.9-linux-x64.tar.gz",
        "arch": "x64",
        "platform": "linux",
        "download_url": "https://gitea.com/actions/go-versions/releases/download/1.15.9-641940491/go-1.15.9-linux-x64.tar.gz"
      },
      {
        "filename": "go-1.15.9-win32-x64.zip",
        "arch": "x64",
        "platform": "win32",
        "download_url": "https://gitea.com/actions/go-versions/releases/download/1.15.9-641940491/go-1.15.9-win32-x64.zip"
      }
    ]
  },
  {
    "version": "1.15.8",
    "stable": true,
    "release_url": "https://gitea.com/actions/go-versions/releases/tag/1.15.8-539663364",
    "files": [
      {
        "filename": "go-1.15.8-darwin-x64.tar.gz",
        "arch": "x64",
        "platform": "darwin",
        "download_url": "https://gitea.com/actions/go-versions/releases/download/1.15.8-539663364/go-1.15.8-darwin-x64.tar.gz"
      },
      {
        "filename": "go-1.15.8-linux-x64.tar.gz",
        "arch": "x64",
        "platform": "linux",
        "download_url": "https://gitea.com/actions/go-versions/releases/download/1.15.8-539663364/go-1.15.8-linux-x64.tar.gz"
      },
      {
        "filename": "go-1.15.8-win32-x64.zip",
        "arch": "x64",
        "platform": "win32",
        "download_url": "https://gitea.com/actions/go-versions/releases/download/1.15.8-539663364/go-1.15.8-win32-x64.zip"
      }
    ]
  },
  {
    "version": "1.15.7",
    "stable": true,
    "release_url": "https://gitea.com/actions/go-versions/releases/tag/1.15.7-497897384",
    "files": [
      {
        "filename": "go-1.15.7-darwin-x64.tar.gz",
        "arch": "x64",
        "platform": "darwin",
        "download_url": "https://gitea.com/actions/go-versions/releases/download/1.15.7-497897384/go-1.15.7-darwin-x64.tar.gz"
      },
      {
        "filename": "go-1.15.7-linux-x64.tar.gz",
        "arch": "x64",
        "platform": "linux",
        "download_url": "https://gitea.com/actions/go-versions/releases/download/1.15.7-497897384/go-1.15.7-linux-x64.tar.gz"
      },
      {
        "filename": "go-1.15.7-win32-x64.zip",
        "arch": "x64",
        "platform": "win32",
        "download_url": "https://gitea.com/actions/go-versions/releases/download/1.15.7-497897384/go-1.15.7-win32-x64.zip"
      }
    ]
  },
  {
    "version": "1.15.6",
    "stable": true,
    "release_url": "https://gitea.com/actions/go-versions/releases/tag/1.15.6-400018344",
    "files": [
      {
        "filename": "go-1.15.6-darwin-x64.tar.gz",
        "arch": "x64",
        "platform": "darwin",
        "download_url": "https://gitea.com/actions/go-versions/releases/download/1.15.6-400018344/go-1.15.6-darwin-x64.tar.gz"
      },
      {
        "filename": "go-1.15.6-linux-x64.tar.gz",
        "arch": "x64",
        "platform": "linux",
        "download_url": "https://gitea.com/actions/go-versions/releases/download/1.15.6-400018344/go-1.15.6-linux-x64.tar.gz"
      },
      {
        "filename": "go-1.15.6-win32-x64.zip",
        "arch": "x64",
        "platform": "win32",
        "download_url": "https://gitea.com/actions/go-versions/releases/download/1.15.6-400018344/go-1.15.6-win32-x64.zip"
      }
    ]
  },
  {
    "version": "1.15.5",
    "stable": true,
    "release_url": "https://gitea.com/actions/go-versions/releases/tag/1.15.5-361109907",
    "files": [
      {
        "filename": "go-1.15.5-darwin-x64.tar.gz",
        "arch": "x64",
        "platform": "darwin",
        "download_url": "https://gitea.com/actions/go-versions/releases/download/1.15.5-361109907/go-1.15.5-darwin-x64.tar.gz"
      },
      {
        "filename": "go-1.15.5-linux-x64.tar.gz",
        "arch": "x64",
        "platform": "linux",
        "download_url": "https://gitea.com/actions/go-versions/releases/download/1.15.5-361109907/go-1.15.5-linux-x64.tar.gz"
      },
      {
        "filename": "go-1.15.5-win32-x64.zip",
        "arch": "x64",
        "platform": "win32",
        "download_url": "https://gitea.com/actions/go-versions/releases/download/1.15.5-361109907/go-1.15.5-win32-x64.zip"
      }
    ]
  },
  {
    "version": "1.15.4",
    "stable": true,
    "release_url": "https://gitea.com/actions/go-versions/releases/tag/1.15.4-349041590",
    "files": [
      {
        "filename": "go-1.15.4-darwin-x64.tar.gz",
        "arch": "x64",
        "platform": "darwin",
        "download_url": "https://gitea.com/actions/go-versions/releases/download/1.15.4-349041590/go-1.15.4-darwin-x64.tar.gz"
      },
      {
        "filename": "go-1.15.4-linux-x64.tar.gz",
        "arch": "x64",
        "platform": "linux",
        "download_url": "https://gitea.com/actions/go-versions/releases/download/1.15.4-349041590/go-1.15.4-linux-x64.tar.gz"
      },
      {
        "filename": "go-1.15.4-win32-x64.zip",
        "arch": "x64",
        "platform": "win32",
        "download_url": "https://gitea.com/actions/go-versions/releases/download/1.15.4-349041590/go-1.15.4-win32-x64.zip"
      }
    ]
  },
  {
    "version": "1.15.3",
    "stable": true,
    "release_url": "https://gitea.com/actions/go-versions/releases/tag/1.15.3-308043678",
    "files": [
      {
        "filename": "go-1.15.3-darwin-x64.tar.gz",
        "arch": "x64",
        "platform": "darwin",
        "download_url": "https://gitea.com/actions/go-versions/releases/download/1.15.3-308043678/go-1.15.3-darwin-x64.tar.gz"
      },
      {
        "filename": "go-1.15.3-linux-x64.tar.gz",
        "arch": "x64",
        "platform": "linux",
        "download_url": "https://gitea.com/actions/go-versions/releases/download/1.15.3-308043678/go-1.15.3-linux-x64.tar.gz"
      },
      {
        "filename": "go-1.15.3-win32-x64.zip",
        "arch": "x64",
        "platform": "win32",
        "download_url": "https://gitea.com/actions/go-versions/releases/download/1.15.3-308043678/go-1.15.3-win32-x64.zip"
      }
    ]
  },
  {
    "version": "1.15.2",
    "stable": true,
    "release_url": "https://gitea.com/actions/go-versions/releases/tag/1.15.2-247587753",
    "files": [
      {
        "filename": "go-1.15.2-darwin-x64.tar.gz",
        "arch": "x64",
        "platform": "darwin",
        "download_url": "https://gitea.com/actions/go-versions/releases/download/1.15.2-247587753/go-1.15.2-darwin-x64.tar.gz"
      },
      {
        "filename": "go-1.15.2-linux-x64.tar.gz",
        "arch": "x64",
        "platform": "linux",
        "download_url": "https://gitea.com/actions/go-versions/releases/download/1.15.2-247587753/go-1.15.2-linux-x64.tar.gz"
      },
      {
        "filename": "go-1.15.2-win32-x64.zip",
        "arch": "x64",
        "platform": "win32",
        "download_url": "https://gitea.com/actions/go-versions/releases/download/1.15.2-247587753/go-1.15.2-win32-x64.zip"
      }
    ]
  },
  {
    "version": "1.15.1",
    "stable": true,
    "release_url": "https://gitea.com/actions/go-versions/releases/tag/1.15.1-235947634",
    "files": [
      {
        "filename": "go-1.15.1-darwin-x64.tar.gz",
        "arch": "x64",
        "platform": "darwin",
        "download_url": "https://gitea.com/actions/go-versions/releases/download/1.15.1-235947634/go-1.15.1-darwin-x64.tar.gz"
      },
      {
        "filename": "go-1.15.1-linux-x64.tar.gz",
        "arch": "x64",
        "platform": "linux",
        "download_url": "https://gitea.com/actions/go-versions/releases/download/1.15.1-235947634/go-1.15.1-linux-x64.tar.gz"
      },
      {
        "filename": "go-1.15.1-win32-x64.zip",
        "arch": "x64",
        "platform": "win32",
        "download_url": "https://gitea.com/actions/go-versions/releases/download/1.15.1-235947634/go-1.15.1-win32-x64.zip"
      }
    ]
  },
  {
    "version": "1.15.0",
    "stable": true,
    "release_url": "https://gitea.com/actions/go-versions/releases/tag/1.15.0-20200812.1",
    "files": [
      {
        "filename": "go-1.15.0-darwin-x64.tar.gz",
        "arch": "x64",
        "platform": "darwin",
        "download_url": "https://gitea.com/actions/go-versions/releases/download/1.15.0-20200812.1/go-1.15.0-darwin-x64.tar.gz"
      },
      {
        "filename": "go-1.15.0-linux-x64.tar.gz",
        "arch": "x64",
        "platform": "linux",
        "download_url": "https://gitea.com/actions/go-versions/releases/download/1.15.0-20200812.1/go-1.15.0-linux-x64.tar.gz"
      },
      {
        "filename": "go-1.15.0-win32-x64.zip",
        "arch": "x64",
        "platform": "win32",
        "download_url": "https://gitea.com/actions/go-versions/releases/download/1.15.0-20200812.1/go-1.15.0-win32-x64.zip"
      }
    ]
  },
  {
    "version": "1.14.15",
    "stable": true,
    "release_url": "https://gitea.com/actions/go-versions/releases/tag/1.14.15-539663618",
    "files": [
      {
        "filename": "go-1.14.15-darwin-x64.tar.gz",
        "arch": "x64",
        "platform": "darwin",
        "download_url": "https://gitea.com/actions/go-versions/releases/download/1.14.15-539663618/go-1.14.15-darwin-x64.tar.gz"
      },
      {
        "filename": "go-1.14.15-linux-x64.tar.gz",
        "arch": "x64",
        "platform": "linux",
        "download_url": "https://gitea.com/actions/go-versions/releases/download/1.14.15-539663618/go-1.14.15-linux-x64.tar.gz"
      },
      {
        "filename": "go-1.14.15-win32-x64.zip",
        "arch": "x64",
        "platform": "win32",
        "download_url": "https://gitea.com/actions/go-versions/releases/download/1.14.15-539663618/go-1.14.15-win32-x64.zip"
      }
    ]
  },
  {
    "version": "1.14.14",
    "stable": true,
    "release_url": "https://gitea.com/actions/go-versions/releases/tag/1.14.14-497897826",
    "files": [
      {
        "filename": "go-1.14.14-darwin-x64.tar.gz",
        "arch": "x64",
        "platform": "darwin",
        "download_url": "https://gitea.com/actions/go-versions/releases/download/1.14.14-497897826/go-1.14.14-darwin-x64.tar.gz"
      },
      {
        "filename": "go-1.14.14-linux-x64.tar.gz",
        "arch": "x64",
        "platform": "linux",
        "download_url": "https://gitea.com/actions/go-versions/releases/download/1.14.14-497897826/go-1.14.14-linux-x64.tar.gz"
      },
      {
        "filename": "go-1.14.14-win32-x64.zip",
        "arch": "x64",
        "platform": "win32",
        "download_url": "https://gitea.com/actions/go-versions/releases/download/1.14.14-497897826/go-1.14.14-win32-x64.zip"
      }
    ]
  },
  {
    "version": "1.14.13",
    "stable": true,
    "release_url": "https://gitea.com/actions/go-versions/releases/tag/1.14.13-400018464",
    "files": [
      {
        "filename": "go-1.14.13-darwin-x64.tar.gz",
        "arch": "x64",
        "platform": "darwin",
        "download_url": "https://gitea.com/actions/go-versions/releases/download/1.14.13-400018464/go-1.14.13-darwin-x64.tar.gz"
      },
      {
        "filename": "go-1.14.13-linux-x64.tar.gz",
        "arch": "x64",
        "platform": "linux",
        "download_url": "https://gitea.com/actions/go-versions/releases/download/1.14.13-400018464/go-1.14.13-linux-x64.tar.gz"
      },
      {
        "filename": "go-1.14.13-win32-x64.zip",
        "arch": "x64",
        "platform": "win32",
        "download_url": "https://gitea.com/actions/go-versions/releases/download/1.14.13-400018464/go-1.14.13-win32-x64.zip"
      }
    ]
  },
  {
    "version": "1.14.12",
    "stable": true,
    "release_url": "https://gitea.com/actions/go-versions/releases/tag/1.14.12-361110298",
    "files": [
      {
        "filename": "go-1.14.12-darwin-x64.tar.gz",
        "arch": "x64",
        "platform": "darwin",
        "download_url": "https://gitea.com/actions/go-versions/releases/download/1.14.12-361110298/go-1.14.12-darwin-x64.tar.gz"
      },
      {
        "filename": "go-1.14.12-linux-x64.tar.gz",
        "arch": "x64",
        "platform": "linux",
        "download_url": "https://gitea.com/actions/go-versions/releases/download/1.14.12-361110298/go-1.14.12-linux-x64.tar.gz"
      },
      {
        "filename": "go-1.14.12-win32-x64.zip",
        "arch": "x64",
        "platform": "win32",
        "download_url": "https://gitea.com/actions/go-versions/releases/download/1.14.12-361110298/go-1.14.12-win32-x64.zip"
      }
    ]
  },
  {
    "version": "1.14.11",
    "stable": true,
    "release_url": "https://gitea.com/actions/go-versions/releases/tag/1.14.11-349059275",
    "files": [
      {
        "filename": "go-1.14.11-darwin-x64.tar.gz",
        "arch": "x64",
        "platform": "darwin",
        "download_url": "https://gitea.com/actions/go-versions/releases/download/1.14.11-349059275/go-1.14.11-darwin-x64.tar.gz"
      },
      {
        "filename": "go-1.14.11-linux-x64.tar.gz",
        "arch": "x64",
        "platform": "linux",
        "download_url": "https://gitea.com/actions/go-versions/releases/download/1.14.11-349059275/go-1.14.11-linux-x64.tar.gz"
      },
      {
        "filename": "go-1.14.11-win32-x64.zip",
        "arch": "x64",
        "platform": "win32",
        "download_url": "https://gitea.com/actions/go-versions/releases/download/1.14.11-349059275/go-1.14.11-win32-x64.zip"
      }
    ]
  },
  {
    "version": "1.14.10",
    "stable": true,
    "release_url": "https://gitea.com/actions/go-versions/releases/tag/1.14.10-308043811",
    "files": [
      {
        "filename": "go-1.14.10-darwin-x64.tar.gz",
        "arch": "x64",
        "platform": "darwin",
        "download_url": "https://gitea.com/actions/go-versions/releases/download/1.14.10-308043811/go-1.14.10-darwin-x64.tar.gz"
      },
      {
        "filename": "go-1.14.10-linux-x64.tar.gz",
        "arch": "x64",
        "platform": "linux",
        "download_url": "https://gitea.com/actions/go-versions/releases/download/1.14.10-308043811/go-1.14.10-linux-x64.tar.gz"
      },
      {
        "filename": "go-1.14.10-win32-x64.zip",
        "arch": "x64",
        "platform": "win32",
        "download_url": "https://gitea.com/actions/go-versions/releases/download/1.14.10-308043811/go-1.14.10-win32-x64.zip"
      }
    ]
  },
  {
    "version": "1.14.9",
    "stable": true,
    "release_url": "https://gitea.com/actions/go-versions/releases/tag/1.14.9-247587858",
    "files": [
      {
        "filename": "go-1.14.9-darwin-x64.tar.gz",
        "arch": "x64",
        "platform": "darwin",
        "download_url": "https://gitea.com/actions/go-versions/releases/download/1.14.9-247587858/go-1.14.9-darwin-x64.tar.gz"
      },
      {
        "filename": "go-1.14.9-linux-x64.tar.gz",
        "arch": "x64",
        "platform": "linux",
        "download_url": "https://gitea.com/actions/go-versions/releases/download/1.14.9-247587858/go-1.14.9-linux-x64.tar.gz"
      },
      {
        "filename": "go-1.14.9-win32-x64.zip",
        "arch": "x64",
        "platform": "win32",
        "download_url": "https://gitea.com/actions/go-versions/releases/download/1.14.9-247587858/go-1.14.9-win32-x64.zip"
      }
    ]
  },
  {
    "version": "1.14.8",
    "stable": true,
    "release_url": "https://gitea.com/actions/go-versions/releases/tag/1.14.8-235947802",
    "files": [
      {
        "filename": "go-1.14.8-darwin-x64.tar.gz",
        "arch": "x64",
        "platform": "darwin",
        "download_url": "https://gitea.com/actions/go-versions/releases/download/1.14.8-235947802/go-1.14.8-darwin-x64.tar.gz"
      },
      {
        "filename": "go-1.14.8-linux-x64.tar.gz",
        "arch": "x64",
        "platform": "linux",
        "download_url": "https://gitea.com/actions/go-versions/releases/download/1.14.8-235947802/go-1.14.8-linux-x64.tar.gz"
      },
      {
        "filename": "go-1.14.8-win32-x64.zip",
        "arch": "x64",
        "platform": "win32",
        "download_url": "https://gitea.com/actions/go-versions/releases/download/1.14.8-235947802/go-1.14.8-win32-x64.zip"
      }
    ]
  },
  {
    "version": "1.14.7",
    "stable": true,
    "release_url": "https://gitea.com/actions/go-versions/releases/tag/1.14.7-20200806.3",
    "files": [
      {
        "filename": "go-1.14.7-darwin-x64.tar.gz",
        "arch": "x64",
        "platform": "darwin",
        "download_url": "https://gitea.com/actions/go-versions/releases/download/1.14.7-20200806.3/go-1.14.7-darwin-x64.tar.gz"
      },
      {
        "filename": "go-1.14.7-linux-x64.tar.gz",
        "arch": "x64",
        "platform": "linux",
        "download_url": "https://gitea.com/actions/go-versions/releases/download/1.14.7-20200806.3/go-1.14.7-linux-x64.tar.gz"
      },
      {
        "filename": "go-1.14.7-win32-x64.zip",
        "arch": "x64",
        "platform": "win32",
        "download_url": "https://gitea.com/actions/go-versions/releases/download/1.14.7-20200806.3/go-1.14.7-win32-x64.zip"
      }
    ]
  },
  {
    "version": "1.14.6",
    "stable": true,
    "release_url": "https://gitea.com/actions/go-versions/releases/tag/1.14.6-20200717.1",
    "files": [
      {
        "filename": "go-1.14.6-darwin-x64.tar.gz",
        "arch": "x64",
        "platform": "darwin",
        "download_url": "https://gitea.com/actions/go-versions/releases/download/1.14.6-20200717.1/go-1.14.6-darwin-x64.tar.gz"
      },
      {
        "filename": "go-1.14.6-linux-x64.tar.gz",
        "arch": "x64",
        "platform": "linux",
        "download_url": "https://gitea.com/actions/go-versions/releases/download/1.14.6-20200717.1/go-1.14.6-linux-x64.tar.gz"
      },
      {
        "filename": "go-1.14.6-win32-x64.zip",
        "arch": "x64",
        "platform": "win32",
        "download_url": "https://gitea.com/actions/go-versions/releases/download/1.14.6-20200717.1/go-1.14.6-win32-x64.zip"
      }
    ]
  },
  {
    "version": "1.14.5",
    "stable": true,
    "release_url": "https://gitea.com/actions/go-versions/releases/tag/1.14.5-20200715.1",
    "files": [
      {
        "filename": "go-1.14.5-darwin-x64.tar.gz",
        "arch": "x64",
        "platform": "darwin",
        "download_url": "https://gitea.com/actions/go-versions/releases/download/1.14.5-20200715.1/go-1.14.5-darwin-x64.tar.gz"
      },
      {
        "filename": "go-1.14.5-linux-x64.tar.gz",
        "arch": "x64",
        "platform": "linux",
        "download_url": "https://gitea.com/actions/go-versions/releases/download/1.14.5-20200715.1/go-1.14.5-linux-x64.tar.gz"
      },
      {
        "filename": "go-1.14.5-win32-x64.zip",
        "arch": "x64",
        "platform": "win32",
        "download_url": "https://gitea.com/actions/go-versions/releases/download/1.14.5-20200715.1/go-1.14.5-win32-x64.zip"
      }
    ]
  },
  {
    "version": "1.14.4",
    "stable": true,
    "release_url": "https://gitea.com/actions/go-versions/releases/tag/1.14.4-20200616.39",
    "files": [
      {
        "filename": "go-1.14.4-darwin-x64.tar.gz",
        "arch": "x64",
        "platform": "darwin",
        "download_url": "https://gitea.com/actions/go-versions/releases/download/1.14.4-20200616.39/go-1.14.4-darwin-x64.tar.gz"
      },
      {
        "filename": "go-1.14.4-linux-x64.tar.gz",
        "arch": "x64",
        "platform": "linux",
        "download_url": "https://gitea.com/actions/go-versions/releases/download/1.14.4-20200616.39/go-1.14.4-linux-x64.tar.gz"
      },
      {
        "filename": "go-1.14.4-win32-x64.zip",
        "arch": "x64",
        "platform": "win32",
        "download_url": "https://gitea.com/actions/go-versions/releases/download/1.14.4-20200616.39/go-1.14.4-win32-x64.zip"
      }
    ]
  },
  {
    "version": "1.14.3",
    "stable": true,
    "release_url": "https://gitea.com/actions/go-versions/releases/tag/1.14.3-20200616.38",
    "files": [
      {
        "filename": "go-1.14.3-darwin-x64.tar.gz",
        "arch": "x64",
        "platform": "darwin",
        "download_url": "https://gitea.com/actions/go-versions/releases/download/1.14.3-20200616.38/go-1.14.3-darwin-x64.tar.gz"
      },
      {
        "filename": "go-1.14.3-linux-x64.tar.gz",
        "arch": "x64",
        "platform": "linux",
        "download_url": "https://gitea.com/actions/go-versions/releases/download/1.14.3-20200616.38/go-1.14.3-linux-x64.tar.gz"
      },
      {
        "filename": "go-1.14.3-win32-x64.zip",
        "arch": "x64",
        "platform": "win32",
        "download_url": "https://gitea.com/actions/go-versions/releases/download/1.14.3-20200616.38/go-1.14.3-win32-x64.zip"
      }
    ]
  },
  {
    "version": "1.14.2",
    "stable": true,
    "release_url": "https://gitea.com/actions/go-versions/releases/tag/1.14.2-20200616.37",
    "files": [
      {
        "filename": "go-1.14.2-darwin-x64.tar.gz",
        "arch": "x64",
        "platform": "darwin",
        "download_url": "https://gitea.com/actions/go-versions/releases/download/1.14.2-20200616.37/go-1.14.2-darwin-x64.tar.gz"
      },
      {
        "filename": "go-1.14.2-linux-x64.tar.gz",
        "arch": "x64",
        "platform": "linux",
        "download_url": "https://gitea.com/actions/go-versions/releases/download/1.14.2-20200616.37/go-1.14.2-linux-x64.tar.gz"
      },
      {
        "filename": "go-1.14.2-win32-x64.zip",
        "arch": "x64",
        "platform": "win32",
        "download_url": "https://gitea.com/actions/go-versions/releases/download/1.14.2-20200616.37/go-1.14.2-win32-x64.zip"
      }
    ]
  },
  {
    "version": "1.14.1",
    "stable": true,
    "release_url": "https://gitea.com/actions/go-versions/releases/tag/1.14.1-20200616.36",
    "files": [
      {
        "filename": "go-1.14.1-darwin-x64.tar.gz",
        "arch": "x64",
        "platform": "darwin",
        "download_url": "https://gitea.com/actions/go-versions/releases/download/1.14.1-20200616.36/go-1.14.1-darwin-x64.tar.gz"
      },
      {
        "filename": "go-1.14.1-linux-x64.tar.gz",
        "arch": "x64",
        "platform": "linux",
        "download_url": "https://gitea.com/actions/go-versions/releases/download/1.14.1-20200616.36/go-1.14.1-linux-x64.tar.gz"
      },
      {
        "filename": "go-1.14.1-win32-x64.zip",
        "arch": "x64",
        "platform": "win32",
        "download_url": "https://gitea.com/actions/go-versions/releases/download/1.14.1-20200616.36/go-1.14.1-win32-x64.zip"
      }
    ]
  },
  {
    "version": "1.14.0",
    "stable": true,
    "release_url": "https://gitea.com/actions/go-versions/releases/tag/1.14.0-20200616.35",
    "files": [
      {
        "filename": "go-1.14.0-darwin-x64.tar.gz",
        "arch": "x64",
        "platform": "darwin",
        "download_url": "https://gitea.com/actions/go-versions/releases/download/1.14.0-20200616.35/go-1.14.0-darwin-x64.tar.gz"
      },
      {
        "filename": "go-1.14.0-linux-x64.tar.gz",
        "arch": "x64",
        "platform": "linux",
        "download_url": "https://gitea.com/actions/go-versions/releases/download/1.14.0-20200616.35/go-1.14.0-linux-x64.tar.gz"
      },
      {
        "filename": "go-1.14.0-win32-x64.zip",
        "arch": "x64",
        "platform": "win32",
        "download_url": "https://gitea.com/actions/go-versions/releases/download/1.14.0-20200616.35/go-1.14.0-win32-x64.zip"
      }
    ]
  },
  {
    "version": "1.13.15",
    "stable": true,
    "release_url": "https://gitea.com/actions/go-versions/releases/tag/1.13.15-20200806.4",
    "files": [
      {
        "filename": "go-1.13.15-darwin-x64.tar.gz",
        "arch": "x64",
        "platform": "darwin",
        "download_url": "https://gitea.com/actions/go-versions/releases/download/1.13.15-20200806.4/go-1.13.15-darwin-x64.tar.gz"
      },
      {
        "filename": "go-1.13.15-linux-x64.tar.gz",
        "arch": "x64",
        "platform": "linux",
        "download_url": "https://gitea.com/actions/go-versions/releases/download/1.13.15-20200806.4/go-1.13.15-linux-x64.tar.gz"
      },
      {
        "filename": "go-1.13.15-win32-x64.zip",
        "arch": "x64",
        "platform": "win32",
        "download_url": "https://gitea.com/actions/go-versions/releases/download/1.13.15-20200806.4/go-1.13.15-win32-x64.zip"
      }
    ]
  },
  {
    "version": "1.13.14",
    "stable": true,
    "release_url": "https://gitea.com/actions/go-versions/releases/tag/1.13.14-20200717.2",
    "files": [
      {
        "filename": "go-1.13.14-darwin-x64.tar.gz",
        "arch": "x64",
        "platform": "darwin",
        "download_url": "https://gitea.com/actions/go-versions/releases/download/1.13.14-20200717.2/go-1.13.14-darwin-x64.tar.gz"
      },
      {
        "filename": "go-1.13.14-linux-x64.tar.gz",
        "arch": "x64",
        "platform": "linux",
        "download_url": "https://gitea.com/actions/go-versions/releases/download/1.13.14-20200717.2/go-1.13.14-linux-x64.tar.gz"
      },
      {
        "filename": "go-1.13.14-win32-x64.zip",
        "arch": "x64",
        "platform": "win32",
        "download_url": "https://gitea.com/actions/go-versions/releases/download/1.13.14-20200717.2/go-1.13.14-win32-x64.zip"
      }
    ]
  },
  {
    "version": "1.13.13",
    "stable": true,
    "release_url": "https://gitea.com/actions/go-versions/releases/tag/1.13.13-20200715.2",
    "files": [
      {
        "filename": "go-1.13.13-darwin-x64.tar.gz",
        "arch": "x64",
        "platform": "darwin",
        "download_url": "https://gitea.com/actions/go-versions/releases/download/1.13.13-20200715.2/go-1.13.13-darwin-x64.tar.gz"
      },
      {
        "filename": "go-1.13.13-linux-x64.tar.gz",
        "arch": "x64",
        "platform": "linux",
        "download_url": "https://gitea.com/actions/go-versions/releases/download/1.13.13-20200715.2/go-1.13.13-linux-x64.tar.gz"
      },
      {
        "filename": "go-1.13.13-win32-x64.zip",
        "arch": "x64",
        "platform": "win32",
        "download_url": "https://gitea.com/actions/go-versions/releases/download/1.13.13-20200715.2/go-1.13.13-win32-x64.zip"
      }
    ]
  },
  {
    "version": "1.13.12",
    "stable": true,
    "release_url": "https://gitea.com/actions/go-versions/releases/tag/1.13.12-20200616.34",
    "files": [
      {
        "filename": "go-1.13.12-darwin-x64.tar.gz",
        "arch": "x64",
        "platform": "darwin",
        "download_url": "https://gitea.com/actions/go-versions/releases/download/1.13.12-20200616.34/go-1.13.12-darwin-x64.tar.gz"
      },
      {
        "filename": "go-1.13.12-linux-x64.tar.gz",
        "arch": "x64",
        "platform": "linux",
        "download_url": "https://gitea.com/actions/go-versions/releases/download/1.13.12-20200616.34/go-1.13.12-linux-x64.tar.gz"
      },
      {
        "filename": "go-1.13.12-win32-x64.zip",
        "arch": "x64",
        "platform": "win32",
        "download_url": "https://gitea.com/actions/go-versions/releases/download/1.13.12-20200616.34/go-1.13.12-win32-x64.zip"
      }
    ]
  },
  {
    "version": "1.13.11",
    "stable": true,
    "release_url": "https://gitea.com/actions/go-versions/releases/tag/1.13.11-20200616.33",
    "files": [
      {
        "filename": "go-1.13.11-darwin-x64.tar.gz",
        "arch": "x64",
        "platform": "darwin",
        "download_url": "https://gitea.com/actions/go-versions/releases/download/1.13.11-20200616.33/go-1.13.11-darwin-x64.tar.gz"
      },
      {
        "filename": "go-1.13.11-linux-x64.tar.gz",
        "arch": "x64",
        "platform": "linux",
        "download_url": "https://gitea.com/actions/go-versions/releases/download/1.13.11-20200616.33/go-1.13.11-linux-x64.tar.gz"
      },
      {
        "filename": "go-1.13.11-win32-x64.zip",
        "arch": "x64",
        "platform": "win32",
        "download_url": "https://gitea.com/actions/go-versions/releases/download/1.13.11-20200616.33/go-1.13.11-win32-x64.zip"
      }
    ]
  },
  {
    "version": "1.13.10",
    "stable": true,
    "release_url": "https://gitea.com/actions/go-versions/releases/tag/1.13.10-20200616.32",
    "files": [
      {
        "filename": "go-1.13.10-darwin-x64.tar.gz",
        "arch": "x64",
        "platform": "darwin",
        "download_url": "https://gitea.com/actions/go-versions/releases/download/1.13.10-20200616.32/go-1.13.10-darwin-x64.tar.gz"
      },
      {
        "filename": "go-1.13.10-linux-x64.tar.gz",
        "arch": "x64",
        "platform": "linux",
        "download_url": "https://gitea.com/actions/go-versions/releases/download/1.13.10-20200616.32/go-1.13.10-linux-x64.tar.gz"
      },
      {
        "filename": "go-1.13.10-win32-x64.zip",
        "arch": "x64",
        "platform": "win32",
        "download_url": "https://gitea.com/actions/go-versions/releases/download/1.13.10-20200616.32/go-1.13.10-win32-x64.zip"
      }
    ]
  },
  {
    "version": "1.13.9",
    "stable": true,
    "release_url": "https://gitea.com/actions/go-versions/releases/tag/1.13.9-20200616.31",
    "files": [
      {
        "filename": "go-1.13.9-darwin-x64.tar.gz",
        "arch": "x64",
        "platform": "darwin",
        "download_url": "https://gitea.com/actions/go-versions/releases/download/1.13.9-20200616.31/go-1.13.9-darwin-x64.tar.gz"
      },
      {
        "filename": "go-1.13.9-linux-x64.tar.gz",
        "arch": "x64",
        "platform": "linux",
        "download_url": "https://gitea.com/actions/go-versions/releases/download/1.13.9-20200616.31/go-1.13.9-linux-x64.tar.gz"
      },
      {
        "filename": "go-1.13.9-win32-x64.zip",
        "arch": "x64",
        "platform": "win32",
        "download_url": "https://gitea.com/actions/go-versions/releases/download/1.13.9-20200616.31/go-1.13.9-win32-x64.zip"
      }
    ]
  },
  {
    "version": "1.13.8",
    "stable": true,
    "release_url": "https://gitea.com/actions/go-versions/releases/tag/1.13.8-20200616.30",
    "files": [
      {
        "filename": "go-1.13.8-darwin-x64.tar.gz",
        "arch": "x64",
        "platform": "darwin",
        "download_url": "https://gitea.com/actions/go-versions/releases/download/1.13.8-20200616.30/go-1.13.8-darwin-x64.tar.gz"
      },
      {
        "filename": "go-1.13.8-linux-x64.tar.gz",
        "arch": "x64",
        "platform": "linux",
        "download_url": "https://gitea.com/actions/go-versions/releases/download/1.13.8-20200616.30/go-1.13.8-linux-x64.tar.gz"
      },
      {
        "filename": "go-1.13.8-win32-x64.zip",
        "arch": "x64",
        "platform": "win32",
        "download_url": "https://gitea.com/actions/go-versions/releases/download/1.13.8-20200616.30/go-1.13.8-win32-x64.zip"
      }
    ]
  },
  {
    "version": "1.13.7",
    "stable": true,
    "release_url": "https://gitea.com/actions/go-versions/releases/tag/1.13.7-20200616.29",
    "files": [
      {
        "filename": "go-1.13.7-darwin-x64.tar.gz",
        "arch": "x64",
        "platform": "darwin",
        "download_url": "https://gitea.com/actions/go-versions/releases/download/1.13.7-20200616.29/go-1.13.7-darwin-x64.tar.gz"
      },
      {
        "filename": "go-1.13.7-linux-x64.tar.gz",
        "arch": "x64",
        "platform": "linux",
        "download_url": "https://gitea.com/actions/go-versions/releases/download/1.13.7-20200616.29/go-1.13.7-linux-x64.tar.gz"
      },
      {
        "filename": "go-1.13.7-win32-x64.zip",
        "arch": "x64",
        "platform": "win32",
        "download_url": "https://gitea.com/actions/go-versions/releases/download/1.13.7-20200616.29/go-1.13.7-win32-x64.zip"
      }
    ]
  },
  {
    "version": "1.13.6",
    "stable": true,
    "release_url": "https://gitea.com/actions/go-versions/releases/tag/1.13.6-20200616.28",
    "files": [
      {
        "filename": "go-1.13.6-darwin-x64.tar.gz",
        "arch": "x64",
        "platform": "darwin",
        "download_url": "https://gitea.com/actions/go-versions/releases/download/1.13.6-20200616.28/go-1.13.6-darwin-x64.tar.gz"
      },
      {
        "filename": "go-1.13.6-linux-x64.tar.gz",
        "arch": "x64",
        "platform": "linux",
        "download_url": "https://gitea.com/actions/go-versions/releases/download/1.13.6-20200616.28/go-1.13.6-linux-x64.tar.gz"
      },
      {
        "filename": "go-1.13.6-win32-x64.zip",
        "arch": "x64",
        "platform": "win32",
        "download_url": "https://gitea.com/actions/go-versions/releases/download/1.13.6-20200616.28/go-1.13.6-win32-x64.zip"
      }
    ]
  },
  {
    "version": "1.13.5",
    "stable": true,
    "release_url": "https://gitea.com/actions/go-versions/releases/tag/1.13.5-20200616.27",
    "files": [
      {
        "filename": "go-1.13.5-darwin-x64.tar.gz",
        "arch": "x64",
        "platform": "darwin",
        "download_url": "https://gitea.com/actions/go-versions/releases/download/1.13.5-20200616.27/go-1.13.5-darwin-x64.tar.gz"
      },
      {
        "filename": "go-1.13.5-linux-x64.tar.gz",
        "arch": "x64",
        "platform": "linux",
        "download_url": "https://gitea.com/actions/go-versions/releases/download/1.13.5-20200616.27/go-1.13.5-linux-x64.tar.gz"
      },
      {
        "filename": "go-1.13.5-win32-x64.zip",
        "arch": "x64",
        "platform": "win32",
        "download_url": "https://gitea.com/actions/go-versions/releases/download/1.13.5-20200616.27/go-1.13.5-win32-x64.zip"
      }
    ]
  },
  {
    "version": "1.13.4",
    "stable": true,
    "release_url": "https://gitea.com/actions/go-versions/releases/tag/1.13.4-20200616.26",
    "files": [
      {
        "filename": "go-1.13.4-darwin-x64.tar.gz",
        "arch": "x64",
        "platform": "darwin",
        "download_url": "https://gitea.com/actions/go-versions/releases/download/1.13.4-20200616.26/go-1.13.4-darwin-x64.tar.gz"
      },
      {
        "filename": "go-1.13.4-linux-x64.tar.gz",
        "arch": "x64",
        "platform": "linux",
        "download_url": "https://gitea.com/actions/go-versions/releases/download/1.13.4-20200616.26/go-1.13.4-linux-x64.tar.gz"
      },
      {
        "filename": "go-1.13.4-win32-x64.zip",
        "arch": "x64",
        "platform": "win32",
        "download_url": "https://gitea.com/actions/go-versions/releases/download/1.13.4-20200616.26/go-1.13.4-win32-x64.zip"
      }
    ]
  },
  {
    "version": "1.13.3",
    "stable": true,
    "release_url": "https://gitea.com/actions/go-versions/releases/tag/1.13.3-20200616.25",
    "files": [
      {
        "filename": "go-1.13.3-darwin-x64.tar.gz",
        "arch": "x64",
        "platform": "darwin",
        "download_url": "https://gitea.com/actions/go-versions/releases/download/1.13.3-20200616.25/go-1.13.3-darwin-x64.tar.gz"
      },
      {
        "filename": "go-1.13.3-linux-x64.tar.gz",
        "arch": "x64",
        "platform": "linux",
        "download_url": "https://gitea.com/actions/go-versions/releases/download/1.13.3-20200616.25/go-1.13.3-linux-x64.tar.gz"
      },
      {
        "filename": "go-1.13.3-win32-x64.zip",
        "arch": "x64",
        "platform": "win32",
        "download_url": "https://gitea.com/actions/go-versions/releases/download/1.13.3-20200616.25/go-1.13.3-win32-x64.zip"
      }
    ]
  },
  {
    "version": "1.13.2",
    "stable": true,
    "release_url": "https://gitea.com/actions/go-versions/releases/tag/1.13.2-20200616.24",
    "files": [
      {
        "filename": "go-1.13.2-darwin-x64.tar.gz",
        "arch": "x64",
        "platform": "darwin",
        "download_url": "https://gitea.com/actions/go-versions/releases/download/1.13.2-20200616.24/go-1.13.2-darwin-x64.tar.gz"
      },
      {
        "filename": "go-1.13.2-linux-x64.tar.gz",
        "arch": "x64",
        "platform": "linux",
        "download_url": "https://gitea.com/actions/go-versions/releases/download/1.13.2-20200616.24/go-1.13.2-linux-x64.tar.gz"
      },
      {
        "filename": "go-1.13.2-win32-x64.zip",
        "arch": "x64",
        "platform": "win32",
        "download_url": "https://gitea.com/actions/go-versions/releases/download/1.13.2-20200616.24/go-1.13.2-win32-x64.zip"
      }
    ]
  },
  {
    "version": "1.13.1",
    "stable": true,
    "release_url": "https://gitea.com/actions/go-versions/releases/tag/1.13.1-20200616.23",
    "files": [
      {
        "filename": "go-1.13.1-darwin-x64.tar.gz",
        "arch": "x64",
        "platform": "darwin",
        "download_url": "https://gitea.com/actions/go-versions/releases/download/1.13.1-20200616.23/go-1.13.1-darwin-x64.tar.gz"
      },
      {
        "filename": "go-1.13.1-linux-x64.tar.gz",
        "arch": "x64",
        "platform": "linux",
        "download_url": "https://gitea.com/actions/go-versions/releases/download/1.13.1-20200616.23/go-1.13.1-linux-x64.tar.gz"
      },
      {
        "filename": "go-1.13.1-win32-x64.zip",
        "arch": "x64",
        "platform": "win32",
        "download_url": "https://gitea.com/actions/go-versions/releases/download/1.13.1-20200616.23/go-1.13.1-win32-x64.zip"
      }
    ]
  },
  {
    "version": "1.13.0",
    "stable": true,
    "release_url": "https://gitea.com/actions/go-versions/releases/tag/1.13.0-20200616.22",
    "files": [
      {
        "filename": "go-1.13.0-darwin-x64.tar.gz",
        "arch": "x64",
        "platform": "darwin",
        "download_url": "https://gitea.com/actions/go-versions/releases/download/1.13.0-20200616.22/go-1.13.0-darwin-x64.tar.gz"
      },
      {
        "filename": "go-1.13.0-linux-x64.tar.gz",
        "arch": "x64",
        "platform": "linux",
        "download_url": "https://gitea.com/actions/go-versions/releases/download/1.13.0-20200616.22/go-1.13.0-linux-x64.tar.gz"
      },
      {
        "filename": "go-1.13.0-win32-x64.zip",
        "arch": "x64",
        "platform": "win32",
        "download_url": "https://gitea.com/actions/go-versions/releases/download/1.13.0-20200616.22/go-1.13.0-win32-x64.zip"
      }
    ]
  },
  {
    "version": "1.12.17",
    "stable": true,
    "release_url": "https://gitea.com/actions/go-versions/releases/tag/1.12.17-20200616.21",
    "files": [
      {
        "filename": "go-1.12.17-darwin-x64.tar.gz",
        "arch": "x64",
        "platform": "darwin",
        "download_url": "https://gitea.com/actions/go-versions/releases/download/1.12.17-20200616.21/go-1.12.17-darwin-x64.tar.gz"
      },
      {
        "filename": "go-1.12.17-linux-x64.tar.gz",
        "arch": "x64",
        "platform": "linux",
        "download_url": "https://gitea.com/actions/go-versions/releases/download/1.12.17-20200616.21/go-1.12.17-linux-x64.tar.gz"
      },
      {
        "filename": "go-1.12.17-win32-x64.zip",
        "arch": "x64",
        "platform": "win32",
        "download_url": "https://gitea.com/actions/go-versions/releases/download/1.12.17-20200616.21/go-1.12.17-win32-x64.zip"
      }
    ]
  },
  {
    "version": "1.12.16",
    "stable": true,
    "release_url": "https://gitea.com/actions/go-versions/releases/tag/1.12.16-20200616.20",
    "files": [
      {
        "filename": "go-1.12.16-darwin-x64.tar.gz",
        "arch": "x64",
        "platform": "darwin",
        "download_url": "https://gitea.com/actions/go-versions/releases/download/1.12.16-20200616.20/go-1.12.16-darwin-x64.tar.gz"
      },
      {
        "filename": "go-1.12.16-linux-x64.tar.gz",
        "arch": "x64",
        "platform": "linux",
        "download_url": "https://gitea.com/actions/go-versions/releases/download/1.12.16-20200616.20/go-1.12.16-linux-x64.tar.gz"
      },
      {
        "filename": "go-1.12.16-win32-x64.zip",
        "arch": "x64",
        "platform": "win32",
        "download_url": "https://gitea.com/actions/go-versions/releases/download/1.12.16-20200616.20/go-1.12.16-win32-x64.zip"
      }
    ]
  },
  {
    "version": "1.12.15",
    "stable": true,
    "release_url": "https://gitea.com/actions/go-versions/releases/tag/1.12.15-20200616.19",
    "files": [
      {
        "filename": "go-1.12.15-darwin-x64.tar.gz",
        "arch": "x64",
        "platform": "darwin",
        "download_url": "https://gitea.com/actions/go-versions/releases/download/1.12.15-20200616.19/go-1.12.15-darwin-x64.tar.gz"
      },
      {
        "filename": "go-1.12.15-linux-x64.tar.gz",
        "arch": "x64",
        "platform": "linux",
        "download_url": "https://gitea.com/actions/go-versions/releases/download/1.12.15-20200616.19/go-1.12.15-linux-x64.tar.gz"
      },
      {
        "filename": "go-1.12.15-win32-x64.zip",
        "arch": "x64",
        "platform": "win32",
        "download_url": "https://gitea.com/actions/go-versions/releases/download/1.12.15-20200616.19/go-1.12.15-win32-x64.zip"
      }
    ]
  },
  {
    "version": "1.12.14",
    "stable": true,
    "release_url": "https://gitea.com/actions/go-versions/releases/tag/1.12.14-20200616.18",
    "files": [
      {
        "filename": "go-1.12.14-darwin-x64.tar.gz",
        "arch": "x64",
        "platform": "darwin",
        "download_url": "https://gitea.com/actions/go-versions/releases/download/1.12.14-20200616.18/go-1.12.14-darwin-x64.tar.gz"
      },
      {
        "filename": "go-1.12.14-linux-x64.tar.gz",
        "arch": "x64",
        "platform": "linux",
        "download_url": "https://gitea.com/actions/go-versions/releases/download/1.12.14-20200616.18/go-1.12.14-linux-x64.tar.gz"
      },
      {
        "filename": "go-1.12.14-win32-x64.zip",
        "arch": "x64",
        "platform": "win32",
        "download_url": "https://gitea.com/actions/go-versions/releases/download/1.12.14-20200616.18/go-1.12.14-win32-x64.zip"
      }
    ]
  },
  {
    "version": "1.12.13",
    "stable": true,
    "release_url": "https://gitea.com/actions/go-versions/releases/tag/1.12.13-20200616.17",
    "files": [
      {
        "filename": "go-1.12.13-darwin-x64.tar.gz",
        "arch": "x64",
        "platform": "darwin",
        "download_url": "https://gitea.com/actions/go-versions/releases/download/1.12.13-20200616.17/go-1.12.13-darwin-x64.tar.gz"
      },
      {
        "filename": "go-1.12.13-linux-x64.tar.gz",
        "arch": "x64",
        "platform": "linux",
        "download_url": "https://gitea.com/actions/go-versions/releases/download/1.12.13-20200616.17/go-1.12.13-linux-x64.tar.gz"
      },
      {
        "filename": "go-1.12.13-win32-x64.zip",
        "arch": "x64",
        "platform": "win32",
        "download_url": "https://gitea.com/actions/go-versions/releases/download/1.12.13-20200616.17/go-1.12.13-win32-x64.zip"
      }
    ]
  },
  {
    "version": "1.12.12",
    "stable": true,
    "release_url": "https://gitea.com/actions/go-versions/releases/tag/1.12.12-20200616.16",
    "files": [
      {
        "filename": "go-1.12.12-darwin-x64.tar.gz",
        "arch": "x64",
        "platform": "darwin",
        "download_url": "https://gitea.com/actions/go-versions/releases/download/1.12.12-20200616.16/go-1.12.12-darwin-x64.tar.gz"
      },
      {
        "filename": "go-1.12.12-linux-x64.tar.gz",
        "arch": "x64",
        "platform": "linux",
        "download_url": "https://gitea.com/actions/go-versions/releases/download/1.12.12-20200616.16/go-1.12.12-linux-x64.tar.gz"
      },
      {
        "filename": "go-1.12.12-win32-x64.zip",
        "arch": "x64",
        "platform": "win32",
        "download_url": "https://gitea.com/actions/go-versions/releases/download/1.12.12-20200616.16/go-1.12.12-win32-x64.zip"
      }
    ]
  },
  {
    "version": "1.12.11",
    "stable": true,
    "release_url": "https://gitea.com/actions/go-versions/releases/tag/1.12.11-20200616.15",
    "files": [
      {
        "filename": "go-1.12.11-darwin-x64.tar.gz",
        "arch": "x64",
        "platform": "darwin",
        "download_url": "https://gitea.com/actions/go-versions/releases/download/1.12.11-20200616.15/go-1.12.11-darwin-x64.tar.gz"
      },
      {
        "filename": "go-1.12.11-linux-x64.tar.gz",
        "arch": "x64",
        "platform": "linux",
        "download_url": "https://gitea.com/actions/go-versions/releases/download/1.12.11-20200616.15/go-1.12.11-linux-x64.tar.gz"
      },
      {
        "filename": "go-1.12.11-win32-x64.zip",
        "arch": "x64",
        "platform": "win32",
        "download_url": "https://gitea.com/actions/go-versions/releases/download/1.12.11-20200616.15/go-1.12.11-win32-x64.zip"
      }
    ]
  },
  {
    "version": "1.12.10",
    "stable": true,
    "release_url": "https://gitea.com/actions/go-versions/releases/tag/1.12.10-20200616.14",
    "files": [
      {
        "filename": "go-1.12.10-darwin-x64.tar.gz",
        "arch": "x64",
        "platform": "darwin",
        "download_url": "https://gitea.com/actions/go-versions/releases/download/1.12.10-20200616.14/go-1.12.10-darwin-x64.tar.gz"
      },
      {
        "filename": "go-1.12.10-linux-x64.tar.gz",
        "arch": "x64",
        "platform": "linux",
        "download_url": "https://gitea.com/actions/go-versions/releases/download/1.12.10-20200616.14/go-1.12.10-linux-x64.tar.gz"
      },
      {
        "filename": "go-1.12.10-win32-x64.zip",
        "arch": "x64",
        "platform": "win32",
        "download_url": "https://gitea.com/actions/go-versions/releases/download/1.12.10-20200616.14/go-1.12.10-win32-x64.zip"
      }
    ]
  },
  {
    "version": "1.12.9",
    "stable": true,
    "release_url": "https://gitea.com/actions/go-versions/releases/tag/1.12.9-20200616.13",
    "files": [
      {
        "filename": "go-1.12.9-darwin-x64.tar.gz",
        "arch": "x64",
        "platform": "darwin",
        "download_url": "https://gitea.com/actions/go-versions/releases/download/1.12.9-20200616.13/go-1.12.9-darwin-x64.tar.gz"
      },
      {
        "filename": "go-1.12.9-linux-x64.tar.gz",
        "arch": "x64",
        "platform": "linux",
        "download_url": "https://gitea.com/actions/go-versions/releases/download/1.12.9-20200616.13/go-1.12.9-linux-x64.tar.gz"
      },
      {
        "filename": "go-1.12.9-win32-x64.zip",
        "arch": "x64",
        "platform": "win32",
        "download_url": "https://gitea.com/actions/go-versions/releases/download/1.12.9-20200616.13/go-1.12.9-win32-x64.zip"
      }
    ]
  },
  {
    "version": "1.12.8",
    "stable": true,
    "release_url": "https://gitea.com/actions/go-versions/releases/tag/1.12.8-20200616.12",
    "files": [
      {
        "filename": "go-1.12.8-darwin-x64.tar.gz",
        "arch": "x64",
        "platform": "darwin",
        "download_url": "https://gitea.com/actions/go-versions/releases/download/1.12.8-20200616.12/go-1.12.8-darwin-x64.tar.gz"
      },
      {
        "filename": "go-1.12.8-linux-x64.tar.gz",
        "arch": "x64",
        "platform": "linux",
        "download_url": "https://gitea.com/actions/go-versions/releases/download/1.12.8-20200616.12/go-1.12.8-linux-x64.tar.gz"
      },
      {
        "filename": "go-1.12.8-win32-x64.zip",
        "arch": "x64",
        "platform": "win32",
        "download_url": "https://gitea.com/actions/go-versions/releases/download/1.12.8-20200616.12/go-1.12.8-win32-x64.zip"
      }
    ]
  },
  {
    "version": "1.12.7",
    "stable": true,
    "release_url": "https://gitea.com/actions/go-versions/releases/tag/1.12.7-20200616.11",
    "files": [
      {
        "filename": "go-1.12.7-darwin-x64.tar.gz",
        "arch": "x64",
        "platform": "darwin",
        "download_url": "https://gitea.com/actions/go-versions/releases/download/1.12.7-20200616.11/go-1.12.7-darwin-x64.tar.gz"
      },
      {
        "filename": "go-1.12.7-linux-x64.tar.gz",
        "arch": "x64",
        "platform": "linux",
        "download_url": "https://gitea.com/actions/go-versions/releases/download/1.12.7-20200616.11/go-1.12.7-linux-x64.tar.gz"
      },
      {
        "filename": "go-1.12.7-win32-x64.zip",
        "arch": "x64",
        "platform": "win32",
        "download_url": "https://gitea.com/actions/go-versions/releases/download/1.12.7-20200616.11/go-1.12.7-win32-x64.zip"
      }
    ]
  },
  {
    "version": "1.12.6",
    "stable": true,
    "release_url": "https://gitea.com/actions/go-versions/releases/tag/1.12.6-20200616.10",
    "files": [
      {
        "filename": "go-1.12.6-darwin-x64.tar.gz",
        "arch": "x64",
        "platform": "darwin",
        "download_url": "https://gitea.com/actions/go-versions/releases/download/1.12.6-20200616.10/go-1.12.6-darwin-x64.tar.gz"
      },
      {
        "filename": "go-1.12.6-linux-x64.tar.gz",
        "arch": "x64",
        "platform": "linux",
        "download_url": "https://gitea.com/actions/go-versions/releases/download/1.12.6-20200616.10/go-1.12.6-linux-x64.tar.gz"
      },
      {
        "filename": "go-1.12.6-win32-x64.zip",
        "arch": "x64",
        "platform": "win32",
        "download_url": "https://gitea.com/actions/go-versions/releases/download/1.12.6-20200616.10/go-1.12.6-win32-x64.zip"
      }
    ]
  },
  {
    "version": "1.12.5",
    "stable": true,
    "release_url": "https://gitea.com/actions/go-versions/releases/tag/1.12.5-20200616.9",
    "files": [
      {
        "filename": "go-1.12.5-darwin-x64.tar.gz",
        "arch": "x64",
        "platform": "darwin",
        "download_url": "https://gitea.com/actions/go-versions/releases/download/1.12.5-20200616.9/go-1.12.5-darwin-x64.tar.gz"
      },
      {
        "filename": "go-1.12.5-linux-x64.tar.gz",
        "arch": "x64",
        "platform": "linux",
        "download_url": "https://gitea.com/actions/go-versions/releases/download/1.12.5-20200616.9/go-1.12.5-linux-x64.tar.gz"
      },
      {
        "filename": "go-1.12.5-win32-x64.zip",
        "arch": "x64",
        "platform": "win32",
        "download_url": "https://gitea.com/actions/go-versions/releases/download/1.12.5-20200616.9/go-1.12.5-win32-x64.zip"
      }
    ]
  },
  {
    "version": "1.12.4",
    "stable": true,
    "release_url": "https://gitea.com/actions/go-versions/releases/tag/1.12.4-20200616.8",
    "files": [
      {
        "filename": "go-1.12.4-darwin-x64.tar.gz",
        "arch": "x64",
        "platform": "darwin",
        "download_url": "https://gitea.com/actions/go-versions/releases/download/1.12.4-20200616.8/go-1.12.4-darwin-x64.tar.gz"
      },
      {
        "filename": "go-1.12.4-linux-x64.tar.gz",
        "arch": "x64",
        "platform": "linux",
        "download_url": "https://gitea.com/actions/go-versions/releases/download/1.12.4-20200616.8/go-1.12.4-linux-x64.tar.gz"
      },
      {
        "filename": "go-1.12.4-win32-x64.zip",
        "arch": "x64",
        "platform": "win32",
        "download_url": "https://gitea.com/actions/go-versions/releases/download/1.12.4-20200616.8/go-1.12.4-win32-x64.zip"
      }
    ]
  },
  {
    "version": "1.12.3",
    "stable": true,
    "release_url": "https://gitea.com/actions/go-versions/releases/tag/1.12.3-20200616.7",
    "files": [
      {
        "filename": "go-1.12.3-darwin-x64.tar.gz",
        "arch": "x64",
        "platform": "darwin",
        "download_url": "https://gitea.com/actions/go-versions/releases/download/1.12.3-20200616.7/go-1.12.3-darwin-x64.tar.gz"
      },
      {
        "filename": "go-1.12.3-linux-x64.tar.gz",
        "arch": "x64",
        "platform": "linux",
        "download_url": "https://gitea.com/actions/go-versions/releases/download/1.12.3-20200616.7/go-1.12.3-linux-x64.tar.gz"
      },
      {
        "filename": "go-1.12.3-win32-x64.zip",
        "arch": "x64",
        "platform": "win32",
        "download_url": "https://gitea.com/actions/go-versions/releases/download/1.12.3-20200616.7/go-1.12.3-win32-x64.zip"
      }
    ]
  },
  {
    "version": "1.12.2",
    "stable": true,
    "release_url": "https://gitea.com/actions/go-versions/releases/tag/1.12.2-20200616.6",
    "files": [
      {
        "filename": "go-1.12.2-darwin-x64.tar.gz",
        "arch": "x64",
        "platform": "darwin",
        "download_url": "https://gitea.com/actions/go-versions/releases/download/1.12.2-20200616.6/go-1.12.2-darwin-x64.tar.gz"
      },
      {
        "filename": "go-1.12.2-linux-x64.tar.gz",
        "arch": "x64",
        "platform": "linux",
        "download_url": "https://gitea.com/actions/go-versions/releases/download/1.12.2-20200616.6/go-1.12.2-linux-x64.tar.gz"
      },
      {
        "filename": "go-1.12.2-win32-x64.zip",
        "arch": "x64",
        "platform": "win32",
        "download_url": "https://gitea.com/actions/go-versions/releases/download/1.12.2-20200616.6/go-1.12.2-win32-x64.zip"
      }
    ]
  },
  {
    "version": "1.12.1",
    "stable": true,
    "release_url": "https://gitea.com/actions/go-versions/releases/tag/1.12.1-20200616.5",
    "files": [
      {
        "filename": "go-1.12.1-darwin-x64.tar.gz",
        "arch": "x64",
        "platform": "darwin",
        "download_url": "https://gitea.com/actions/go-versions/releases/download/1.12.1-20200616.5/go-1.12.1-darwin-x64.tar.gz"
      },
      {
        "filename": "go-1.12.1-linux-x64.tar.gz",
        "arch": "x64",
        "platform": "linux",
        "download_url": "https://gitea.com/actions/go-versions/releases/download/1.12.1-20200616.5/go-1.12.1-linux-x64.tar.gz"
      },
      {
        "filename": "go-1.12.1-win32-x64.zip",
        "arch": "x64",
        "platform": "win32",
        "download_url": "https://gitea.com/actions/go-versions/releases/download/1.12.1-20200616.5/go-1.12.1-win32-x64.zip"
      }
    ]
  },
  {
    "version": "1.12.0",
    "stable": true,
    "release_url": "https://gitea.com/actions/go-versions/releases/tag/1.12.0-20200616.4",
    "files": [
      {
        "filename": "go-1.12.0-darwin-x64.tar.gz",
        "arch": "x64",
        "platform": "darwin",
        "download_url": "https://gitea.com/actions/go-versions/releases/download/1.12.0-20200616.4/go-1.12.0-darwin-x64.tar.gz"
      },
      {
        "filename": "go-1.12.0-linux-x64.tar.gz",
        "arch": "x64",
        "platform": "linux",
        "download_url": "https://gitea.com/actions/go-versions/releases/download/1.12.0-20200616.4/go-1.12.0-linux-x64.tar.gz"
      },
      {
        "filename": "go-1.12.0-win32-x64.zip",
        "arch": "x64",
        "platform": "win32",
        "download_url": "https://gitea.com/actions/go-versions/releases/download/1.12.0-20200616.4/go-1.12.0-win32-x64.zip"
      }
    ]
  },
  {
    "version": "1.11.13",
    "stable": true,
    "release_url": "https://gitea.com/actions/go-versions/releases/tag/1.11.13-20200616.3",
    "files": [
      {
        "filename": "go-1.11.13-darwin-x64.tar.gz",
        "arch": "x64",
        "platform": "darwin",
        "download_url": "https://gitea.com/actions/go-versions/releases/download/1.11.13-20200616.3/go-1.11.13-darwin-x64.tar.gz"
      },
      {
        "filename": "go-1.11.13-linux-x64.tar.gz",
        "arch": "x64",
        "platform": "linux",
        "download_url": "https://gitea.com/actions/go-versions/releases/download/1.11.13-20200616.3/go-1.11.13-linux-x64.tar.gz"
      },
      {
        "filename": "go-1.11.13-win32-x64.zip",
        "arch": "x64",
        "platform": "win32",
        "download_url": "https://gitea.com/actions/go-versions/releases/download/1.11.13-20200616.3/go-1.11.13-win32-x64.zip"
      }
    ]
  },
  {
    "version": "1.10.8",
    "stable": true,
    "release_url": "https://gitea.com/actions/go-versions/releases/tag/1.10.8-20200616.2",
    "files": [
      {
        "filename": "go-1.10.8-darwin-x64.tar.gz",
        "arch": "x64",
        "platform": "darwin",
        "download_url": "https://gitea.com/actions/go-versions/releases/download/1.10.8-20200616.2/go-1.10.8-darwin-x64.tar.gz"
      },
      {
        "filename": "go-1.10.8-linux-x64.tar.gz",
        "arch": "x64",
        "platform": "linux",
        "download_url": "https://gitea.com/actions/go-versions/releases/download/1.10.8-20200616.2/go-1.10.8-linux-x64.tar.gz"
      },
      {
        "filename": "go-1.10.8-win32-x64.zip",
        "arch": "x64",
        "platform": "win32",
        "download_url": "https://gitea.com/actions/go-versions/releases/download/1.10.8-20200616.2/go-1.10.8-win32-x64.zip"
      }
    ]
  },
  {
    "version": "1.9.7",
    "stable": true,
    "release_url": "https://gitea.com/actions/go-versions/releases/tag/1.9.7-20200616.1",
    "files": [
      {
        "filename": "go-1.9.7-darwin-x64.tar.gz",
        "arch": "x64",
        "platform": "darwin",
        "download_url": "https://gitea.com/actions/go-versions/releases/download/1.9.7-20200616.1/go-1.9.7-darwin-x64.tar.gz"
      },
      {
        "filename": "go-1.9.7-linux-x64.tar.gz",
        "arch": "x64",
        "platform": "linux",
        "download_url": "https://gitea.com/actions/go-versions/releases/download/1.9.7-20200616.1/go-1.9.7-linux-x64.tar.gz"
      },
      {
        "filename": "go-1.9.7-win32-x64.zip",
        "arch": "x64",
        "platform": "win32",
        "download_url": "https://gitea.com/actions/go-versions/releases/download/1.9.7-20200616.1/go-1.9.7-win32-x64.zip"
      }
    ]
  }
]
